<?xml version="1.0" encoding="UTF-8"?>
<Project>
   <description>latihan web testing</description>
   <name>latihan-katalon</name>
   <tag></tag>
   <UUID>b9bc922d-9af1-4e2d-890e-49e22167b83a</UUID>
   <migratedVersion>5.9.0</migratedVersion>
   <pageLoadTimeout>0</pageLoadTimeout>
   <projectFileLocation>C:\Users\widi pamungkas\Katalon Studio\latihan-katalon\latihan-katalon.prj</projectFileLocation>
   <sourceContent>
      <sourceFolderList>
         <sourceFolderConfiguration>
            <url>Include/scripts/groovy</url>
         </sourceFolderConfiguration>
      </sourceFolderList>
      <systemFolderList>
         <systemFolderConfiguration>
            <url>Include/scripts/groovy</url>
         </systemFolderConfiguration>
         <systemFolderConfiguration>
            <url>Include/features</url>
         </systemFolderConfiguration>
         <systemFolderConfiguration>
            <url>Include/config</url>
         </systemFolderConfiguration>
      </systemFolderList>
   </sourceContent>
   <timeStampInProperties>false</timeStampInProperties>
   <type>WEBUI</type>
</Project>
